{
  "project_info": {
    "project_number": "1001082190440",
    "firebase_url": "https://vater-app.firebaseio.com",
    "project_id": "vater-app",
    "storage_bucket": "vater-app.appspot.com"
  },
  "client": [
    {
      "client_info": {
        "mobilesdk_app_id": "1:1001082190440:android:c34fc9c3d34b2cba5e99dd",
        "android_client_info": {
          "package_name": "com.example.vater_app_flutter"
        }
      },
      "oauth_client": [
        {
          "client_id": "1001082190440-tvnhdgpps7e1hnbf5rq6io6l6cklakaq.apps.googleusercontent.com",
          "client_type": 3
        }
      ],
      "api_key": [
        {
          "current_key": "AIzaSyCE3Yoz0K7afmI1AEtdfGETbF3ybgdzLkw"
        }
      ],
      "services": {
        "appinvite_service": {
          "other_platform_oauth_client": [
            {
              "client_id": "1001082190440-tvnhdgpps7e1hnbf5rq6io6l6cklakaq.apps.googleusercontent.com",
              "client_type": 3
            },
            {
              "client_id": "1001082190440-2lrtah2p3io6g8hsbeq61t0pq0grhssh.apps.googleusercontent.com",
              "client_type": 2,
              "ios_info": {
                "bundle_id": "com.nnaendorf.vaterapp"
              }
            }
          ]
        }
      }
    },
    {
      "client_info": {
        "mobilesdk_app_id": "1:1001082190440:android:43beb19183ed28825e99dd",
        "android_client_info": {
          "package_name": "com.nnaendorf.vaterapp"
        }
      },
      "oauth_client": [
        {
          "client_id": "1001082190440-tvnhdgpps7e1hnbf5rq6io6l6cklakaq.apps.googleusercontent.com",
          "client_type": 3
        }
      ],
      "api_key": [
        {
          "current_key": "AIzaSyCE3Yoz0K7afmI1AEtdfGETbF3ybgdzLkw"
        }
      ],
      "services": {
        "appinvite_service": {
          "other_platform_oauth_client": [
            {
              "client_id": "1001082190440-tvnhdgpps7e1hnbf5rq6io6l6cklakaq.apps.googleusercontent.com",
              "client_type": 3
            },
            {
              "client_id": "1001082190440-2lrtah2p3io6g8hsbeq61t0pq0grhssh.apps.googleusercontent.com",
              "client_type": 2,
              "ios_info": {
                "bundle_id": "com.nnaendorf.vaterapp"
              }
            }
          ]
        }
      }
    }
  ],
  "configuration_version": "1"
}